-------------------------------------------------------------------------------
Test set: com.in28minutes.springboot.web.SpringBootFirstWebApplicationTests
-------------------------------------------------------------------------------
Tests run: 1, Failures: 0, Errors: 0, Skipped: 0, Time elapsed: 19.966 s - in com.in28minutes.springboot.web.SpringBootFirstWebApplicationTests
